<?xml version="1.0" encoding="UTF-8" standalone="no"?>
<svg
   xmlns:dc="http://purl.org/dc/elements/1.1/"
   xmlns:cc="http://creativecommons.org/ns#"
   xmlns:rdf="http://www.w3.org/1999/02/22-rdf-syntax-ns#"
   xmlns:svg="http://www.w3.org/2000/svg"
   xmlns="http://www.w3.org/2000/svg"
   xmlns:sodipodi="http://sodipodi.sourceforge.net/DTD/sodipodi-0.dtd"
   xmlns:inkscape="http://www.inkscape.org/namespaces/inkscape"
   version="1.1"
   id="Layer_1"
   x="0px"
   y="0px"
   width="16px"
   height="16px"
   viewBox="0 0 500 500"
   xml:space="preserve"
   inkscape:version="0.91 r13725"
   sodipodi:docname="b_invoice.svg"
   inkscape:export-filename="C:\Users\D\workspace\Fast Lane Admin\src\public\pic\icons\print.png"
   inkscape:export-xdpi="78.75"
   inkscape:export-ydpi="78.75"><metadata
     id="metadata9"><rdf:RDF><cc:Work
         rdf:about=""><dc:format>image/svg+xml</dc:format><dc:type
           rdf:resource="http://purl.org/dc/dcmitype/StillImage" /><dc:title></dc:title></cc:Work></rdf:RDF></metadata><defs
     id="defs7"><marker
       inkscape:stockid="TriangleOutL"
       orient="auto"
       refY="0.0"
       refX="0.0"
       id="TriangleOutL"
       style="overflow:visible"
       inkscape:isstock="true"><path
         id="path5810"
         d="M 5.77,0.0 L -2.88,5.0 L -2.88,-5.0 L 5.77,0.0 z "
         style="fill-rule:evenodd;stroke:#000000;stroke-width:1pt;stroke-opacity:1;fill:#000000;fill-opacity:1"
         transform="scale(0.8)" /></marker><marker
       inkscape:stockid="Arrow2Lend"
       orient="auto"
       refY="0.0"
       refX="0.0"
       id="Arrow2Lend"
       style="overflow:visible;"
       inkscape:isstock="true"><path
         id="path5689"
         style="fill-rule:evenodd;stroke-width:0.625;stroke-linejoin:round;stroke:#000000;stroke-opacity:1;fill:#000000;fill-opacity:1"
         d="M 8.7185878,4.0337352 L -2.2072895,0.016013256 L 8.7185884,-4.0017078 C 6.9730900,-1.6296469 6.9831476,1.6157441 8.7185878,4.0337352 z "
         transform="scale(1.1) rotate(180) translate(1,0)" /></marker><marker
       inkscape:stockid="Arrow1Lstart"
       orient="auto"
       refY="0.0"
       refX="0.0"
       id="marker6295"
       style="overflow:visible"
       inkscape:isstock="true"><path
         id="path6297"
         d="M 0.0,0.0 L 5.0,-5.0 L -12.5,0.0 L 5.0,5.0 L 0.0,0.0 z "
         style="fill-rule:evenodd;stroke:#000000;stroke-width:1pt;stroke-opacity:1;fill:#000000;fill-opacity:1"
         transform="scale(0.8) translate(12.5,0)" /></marker><marker
       inkscape:stockid="Arrow1Lstart"
       orient="auto"
       refY="0.0"
       refX="0.0"
       id="marker6165"
       style="overflow:visible"
       inkscape:isstock="true"><path
         id="path6167"
         d="M 0.0,0.0 L 5.0,-5.0 L -12.5,0.0 L 5.0,5.0 L 0.0,0.0 z "
         style="fill-rule:evenodd;stroke:#000000;stroke-width:1pt;stroke-opacity:1;fill:#000000;fill-opacity:1"
         transform="scale(0.8) translate(12.5,0)" /></marker><marker
       inkscape:stockid="Arrow1Lstart"
       orient="auto"
       refY="0.0"
       refX="0.0"
       id="marker6041"
       style="overflow:visible"
       inkscape:isstock="true"><path
         id="path6043"
         d="M 0.0,0.0 L 5.0,-5.0 L -12.5,0.0 L 5.0,5.0 L 0.0,0.0 z "
         style="fill-rule:evenodd;stroke:#000000;stroke-width:1pt;stroke-opacity:1;fill:#000000;fill-opacity:1"
         transform="scale(0.8) translate(12.5,0)" /></marker><marker
       inkscape:stockid="Arrow1Lstart"
       orient="auto"
       refY="0.0"
       refX="0.0"
       id="marker5924"
       style="overflow:visible"
       inkscape:isstock="true"><path
         id="path5668"
         d="M 0.0,0.0 L 5.0,-5.0 L -12.5,0.0 L 5.0,5.0 L 0.0,0.0 z "
         style="fill-rule:evenodd;stroke:#000000;stroke-width:1pt;stroke-opacity:1;fill:#000000;fill-opacity:1"
         transform="scale(0.8) translate(12.5,0)" /></marker><marker
       inkscape:stockid="Arrow1Lstart"
       orient="auto"
       refY="0.0"
       refX="0.0"
       id="marker6910"
       style="overflow:visible"
       inkscape:isstock="true"><path
         id="path6912"
         d="M 0.0,0.0 L 5.0,-5.0 L -12.5,0.0 L 5.0,5.0 L 0.0,0.0 z "
         style="fill-rule:evenodd;stroke:#000000;stroke-width:1pt;stroke-opacity:1;fill:#000000;fill-opacity:1"
         transform="scale(0.8) translate(12.5,0)" /></marker><marker
       inkscape:stockid="Arrow1Lstart"
       orient="auto"
       refY="0.0"
       refX="0.0"
       id="marker6798"
       style="overflow:visible"
       inkscape:isstock="true"><path
         id="path6800"
         d="M 0.0,0.0 L 5.0,-5.0 L -12.5,0.0 L 5.0,5.0 L 0.0,0.0 z "
         style="fill-rule:evenodd;stroke:#000000;stroke-width:1pt;stroke-opacity:1;fill:#000000;fill-opacity:1"
         transform="scale(0.8) translate(12.5,0)" /></marker><marker
       inkscape:stockid="Arrow1Lstart"
       orient="auto"
       refY="0.0"
       refX="0.0"
       id="marker6506"
       style="overflow:visible"
       inkscape:isstock="true"><path
         id="path6508"
         d="M 0.0,0.0 L 5.0,-5.0 L -12.5,0.0 L 5.0,5.0 L 0.0,0.0 z "
         style="fill-rule:evenodd;stroke:#000000;stroke-width:1pt;stroke-opacity:1;fill:#000000;fill-opacity:1"
         transform="scale(0.8) translate(12.5,0)" /></marker><marker
       inkscape:stockid="Arrow1Lstart"
       orient="auto"
       refY="0.0"
       refX="0.0"
       id="marker6406"
       style="overflow:visible"
       inkscape:isstock="true"><path
         id="path6408"
         d="M 0.0,0.0 L 5.0,-5.0 L -12.5,0.0 L 5.0,5.0 L 0.0,0.0 z "
         style="fill-rule:evenodd;stroke:#000000;stroke-width:1pt;stroke-opacity:1;fill:#000000;fill-opacity:1"
         transform="scale(0.8) translate(12.5,0)" /></marker><marker
       inkscape:stockid="Arrow1Lstart"
       orient="auto"
       refY="0.0"
       refX="0.0"
       id="marker6312"
       style="overflow:visible"
       inkscape:isstock="true"><path
         id="path6314"
         d="M 0.0,0.0 L 5.0,-5.0 L -12.5,0.0 L 5.0,5.0 L 0.0,0.0 z "
         style="fill-rule:evenodd;stroke:#000000;stroke-width:1pt;stroke-opacity:1;fill:#000000;fill-opacity:1"
         transform="scale(0.8) translate(12.5,0)" /></marker><marker
       inkscape:stockid="Arrow1Lstart"
       orient="auto"
       refY="0.0"
       refX="0.0"
       id="marker6224"
       style="overflow:visible"
       inkscape:isstock="true"><path
         id="path6226"
         d="M 0.0,0.0 L 5.0,-5.0 L -12.5,0.0 L 5.0,5.0 L 0.0,0.0 z "
         style="fill-rule:evenodd;stroke:#000000;stroke-width:1pt;stroke-opacity:1;fill:#000000;fill-opacity:1"
         transform="scale(0.8) translate(12.5,0)" /></marker><marker
       inkscape:stockid="Arrow1Lstart"
       orient="auto"
       refY="0.0"
       refX="0.0"
       id="marker6142"
       style="overflow:visible"
       inkscape:isstock="true"><path
         id="path6144"
         d="M 0.0,0.0 L 5.0,-5.0 L -12.5,0.0 L 5.0,5.0 L 0.0,0.0 z "
         style="fill-rule:evenodd;stroke:#000000;stroke-width:1pt;stroke-opacity:1;fill:#000000;fill-opacity:1"
         transform="scale(0.8) translate(12.5,0)" /></marker><marker
       inkscape:stockid="Arrow1Lstart"
       orient="auto"
       refY="0.0"
       refX="0.0"
       id="marker5940"
       style="overflow:visible"
       inkscape:isstock="true"><path
         id="path5942"
         d="M 0.0,0.0 L 5.0,-5.0 L -12.5,0.0 L 5.0,5.0 L 0.0,0.0 z "
         style="fill-rule:evenodd;stroke:#000000;stroke-width:1pt;stroke-opacity:1;fill:#000000;fill-opacity:1"
         transform="scale(0.8) translate(12.5,0)" /></marker><marker
       inkscape:stockid="Arrow1Lstart"
       orient="auto"
       refY="0.0"
       refX="0.0"
       id="marker5756"
       style="overflow:visible"
       inkscape:isstock="true"><path
         id="path5758"
         d="M 0.0,0.0 L 5.0,-5.0 L -12.5,0.0 L 5.0,5.0 L 0.0,0.0 z "
         style="fill-rule:evenodd;stroke:#000000;stroke-width:1pt;stroke-opacity:1;fill:#000000;fill-opacity:1"
         transform="scale(0.8) translate(12.5,0)" /></marker><marker
       inkscape:stockid="Arrow1Lstart"
       orient="auto"
       refY="0.0"
       refX="0.0"
       id="marker5566"
       style="overflow:visible"
       inkscape:isstock="true"><path
         id="path5568"
         d="M 0.0,0.0 L 5.0,-5.0 L -12.5,0.0 L 5.0,5.0 L 0.0,0.0 z "
         style="fill-rule:evenodd;stroke:#000000;stroke-width:1pt;stroke-opacity:1;fill:#000000;fill-opacity:1"
         transform="scale(0.8) translate(12.5,0)" /></marker><marker
       inkscape:stockid="Arrow1Lstart"
       orient="auto"
       refY="0.0"
       refX="0.0"
       id="marker5430"
       style="overflow:visible"
       inkscape:isstock="true"><path
         id="path5432"
         d="M 0.0,0.0 L 5.0,-5.0 L -12.5,0.0 L 5.0,5.0 L 0.0,0.0 z "
         style="fill-rule:evenodd;stroke:#000000;stroke-width:1pt;stroke-opacity:1;fill:#000000;fill-opacity:1"
         transform="scale(0.8) translate(12.5,0)" /></marker><marker
       inkscape:stockid="Arrow1Lstart"
       orient="auto"
       refY="0.0"
       refX="0.0"
       id="marker5300"
       style="overflow:visible"
       inkscape:isstock="true"><path
         id="path5302"
         d="M 0.0,0.0 L 5.0,-5.0 L -12.5,0.0 L 5.0,5.0 L 0.0,0.0 z "
         style="fill-rule:evenodd;stroke:#000000;stroke-width:1pt;stroke-opacity:1;fill:#000000;fill-opacity:1"
         transform="scale(0.8) translate(12.5,0)" /></marker><marker
       inkscape:stockid="StopS"
       orient="auto"
       refY="0.0"
       refX="0.0"
       id="StopS"
       style="overflow:visible"
       inkscape:isstock="true"><path
         id="path4921"
         d="M 0.0,5.65 L 0.0,-5.65"
         style="fill:none;fill-opacity:0.75;fill-rule:evenodd;stroke:#000000;stroke-width:1pt;stroke-opacity:1"
         transform="scale(0.2)" /></marker><marker
       inkscape:stockid="TriangleOutM"
       orient="auto"
       refY="0.0"
       refX="0.0"
       id="TriangleOutM"
       style="overflow:visible"
       inkscape:isstock="true"><path
         id="path4891"
         d="M 5.77,0.0 L -2.88,5.0 L -2.88,-5.0 L 5.77,0.0 z "
         style="fill-rule:evenodd;stroke:#888888;stroke-width:1pt;stroke-opacity:1;fill:#888888;fill-opacity:1"
         transform="scale(0.4)" /></marker><marker
       inkscape:stockid="Arrow1Send"
       orient="auto"
       refY="0.0"
       refX="0.0"
       id="Arrow1Send"
       style="overflow:visible;"
       inkscape:isstock="true"><path
         id="path4761"
         d="M 0.0,0.0 L 5.0,-5.0 L -12.5,0.0 L 5.0,5.0 L 0.0,0.0 z "
         style="fill-rule:evenodd;stroke:#000000;stroke-width:1pt;stroke-opacity:1;fill:#000000;fill-opacity:1"
         transform="scale(0.2) rotate(180) translate(6,0)" /></marker><marker
       inkscape:stockid="Arrow1Sstart"
       orient="auto"
       refY="0.0"
       refX="0.0"
       id="Arrow1Sstart"
       style="overflow:visible"
       inkscape:isstock="true"><path
         id="path4758"
         d="M 0.0,0.0 L 5.0,-5.0 L -12.5,0.0 L 5.0,5.0 L 0.0,0.0 z "
         style="fill-rule:evenodd;stroke:#000000;stroke-width:1pt;stroke-opacity:1;fill:#000000;fill-opacity:1"
         transform="scale(0.2) translate(6,0)" /></marker><marker
       inkscape:stockid="Arrow1Lstart"
       orient="auto"
       refY="0.0"
       refX="0.0"
       id="marker5036"
       style="overflow:visible"
       inkscape:isstock="true"><path
         id="path5038"
         d="M 0.0,0.0 L 5.0,-5.0 L -12.5,0.0 L 5.0,5.0 L 0.0,0.0 z "
         style="fill-rule:evenodd;stroke:#000000;stroke-width:1pt;stroke-opacity:1;fill:#000000;fill-opacity:1"
         transform="scale(0.8) translate(12.5,0)" /></marker><marker
       inkscape:stockid="Arrow1Lstart"
       orient="auto"
       refY="0.0"
       refX="0.0"
       id="Arrow1Lstart"
       style="overflow:visible"
       inkscape:isstock="true"><path
         id="path4746"
         d="M 0.0,0.0 L 5.0,-5.0 L -12.5,0.0 L 5.0,5.0 L 0.0,0.0 z "
         style="fill-rule:evenodd;stroke:#000000;stroke-width:1pt;stroke-opacity:1;fill:#000000;fill-opacity:1"
         transform="scale(0.8) translate(12.5,0)" /></marker></defs><sodipodi:namedview
     pagecolor="#ffffff"
     bordercolor="#666666"
     borderopacity="1"
     objecttolerance="10"
     gridtolerance="10"
     guidetolerance="10"
     inkscape:pageopacity="0"
     inkscape:pageshadow="2"
     inkscape:window-width="1280"
     inkscape:window-height="657"
     id="namedview5"
     showgrid="false"
     inkscape:zoom="22.367912"
     inkscape:cx="4.3130212"
     inkscape:cy="12.165865"
     inkscape:window-x="-8"
     inkscape:window-y="-8"
     inkscape:window-maximized="1"
     inkscape:current-layer="text5053" /><g
     inkscape:groupmode="layer"
     id="layer2"
     inkscape:label="Layer 2"
     style="display:inline" /><g
     inkscape:groupmode="layer"
     id="layer1"
     inkscape:label="Layer 1"
     style="display:inline"><g
       id="g4174"
       transform="matrix(20.959443,0,0,20.959443,115.99576,99.046605)" /><g
       id="g4176"
       transform="matrix(20.959443,0,0,20.959443,115.99576,99.046605)" /><g
       id="g4178"
       transform="matrix(20.959443,0,0,20.959443,115.99576,99.046605)" /><g
       id="g4180"
       transform="matrix(20.959443,0,0,20.959443,115.99576,99.046605)" /><g
       id="g4182"
       transform="matrix(20.959443,0,0,20.959443,115.99576,99.046605)" /><g
       id="g4184"
       transform="matrix(20.959443,0,0,20.959443,115.99576,99.046605)" /><g
       id="g4186"
       transform="matrix(20.959443,0,0,20.959443,115.99576,99.046605)" /><g
       id="g4188"
       transform="matrix(20.959443,0,0,20.959443,115.99576,99.046605)" /><g
       id="g4190"
       transform="matrix(20.959443,0,0,20.959443,115.99576,99.046605)" /><g
       id="g4192"
       transform="matrix(20.959443,0,0,20.959443,115.99576,99.046605)" /><g
       id="g4194"
       transform="matrix(20.959443,0,0,20.959443,115.99576,99.046605)" /><g
       id="g4196"
       transform="matrix(20.959443,0,0,20.959443,115.99576,99.046605)" /><g
       id="g4198"
       transform="matrix(20.959443,0,0,20.959443,115.99576,99.046605)" /><g
       id="g4200"
       transform="matrix(20.959443,0,0,20.959443,115.99576,99.046605)" /><g
       id="g4202"
       transform="matrix(20.959443,0,0,20.959443,115.99576,99.046605)" /><g
       id="g4273"
       transform="matrix(24.137409,0,0,24.137409,82.09745,92.69067)" /><g
       id="g4275"
       transform="matrix(24.137409,0,0,24.137409,82.09745,92.69067)" /><g
       id="g4277"
       transform="matrix(24.137409,0,0,24.137409,82.09745,92.69067)" /><g
       id="g4279"
       transform="matrix(24.137409,0,0,24.137409,82.09745,92.69067)" /><g
       id="g4281"
       transform="matrix(24.137409,0,0,24.137409,82.09745,92.69067)" /><g
       id="g4283"
       transform="matrix(24.137409,0,0,24.137409,82.09745,92.69067)" /><g
       id="g4285"
       transform="matrix(24.137409,0,0,24.137409,82.09745,92.69067)" /><g
       id="g4287"
       transform="matrix(24.137409,0,0,24.137409,82.09745,92.69067)" /><g
       id="g4289"
       transform="matrix(24.137409,0,0,24.137409,82.09745,92.69067)" /><g
       id="g4291"
       transform="matrix(24.137409,0,0,24.137409,82.09745,92.69067)" /><g
       id="g4293"
       transform="matrix(24.137409,0,0,24.137409,82.09745,92.69067)" /><g
       id="g4295"
       transform="matrix(24.137409,0,0,24.137409,82.09745,92.69067)" /><g
       id="g4297"
       transform="matrix(24.137409,0,0,24.137409,82.09745,92.69067)" /><g
       id="g4299"
       transform="matrix(24.137409,0,0,24.137409,82.09745,92.69067)" /><g
       id="g4301"
       transform="matrix(24.137409,0,0,24.137409,82.09745,92.69067)" /><g
       transform="matrix(31.249999,0,0,31.249999,-30.205875,69.357751)"
       id="g4378" /><g
       transform="matrix(31.249999,0,0,31.249999,-30.205875,69.357751)"
       id="g4380" /><g
       transform="matrix(31.249999,0,0,31.249999,-30.205875,69.357751)"
       id="g4382" /><g
       transform="matrix(31.249999,0,0,31.249999,-30.205875,69.357751)"
       id="g4384" /><g
       transform="matrix(31.249999,0,0,31.249999,-30.205875,69.357751)"
       id="g4386" /><g
       transform="matrix(31.249999,0,0,31.249999,-30.205875,69.357751)"
       id="g4388" /><g
       transform="matrix(31.249999,0,0,31.249999,-30.205875,69.357751)"
       id="g4390" /><g
       transform="matrix(31.249999,0,0,31.249999,-30.205875,69.357751)"
       id="g4392" /><g
       transform="matrix(31.249999,0,0,31.249999,-30.205875,69.357751)"
       id="g4394" /><g
       transform="matrix(31.249999,0,0,31.249999,-30.205875,69.357751)"
       id="g4396" /><g
       transform="matrix(31.249999,0,0,31.249999,-30.205875,69.357751)"
       id="g4398" /><g
       transform="matrix(31.249999,0,0,31.249999,-30.205875,69.357751)"
       id="g4400" /><g
       transform="matrix(31.249999,0,0,31.249999,-30.205875,69.357751)"
       id="g4402" /><g
       transform="matrix(31.249999,0,0,31.249999,-30.205875,69.357751)"
       id="g4404" /><g
       transform="matrix(31.249999,0,0,31.249999,-30.205875,69.357751)"
       id="g4406" /><text
       xml:space="preserve"
       style="font-style:normal;font-weight:normal;font-size:429.68747959px;line-height:125%;font-family:sans-serif;letter-spacing:0px;word-spacing:0px;fill:#000000;fill-opacity:1;stroke:none;stroke-width:1px;stroke-linecap:butt;stroke-linejoin:miter;stroke-opacity:1;"
       x="188.55931"
       y="275.42374"
       id="text4781"
       sodipodi:linespacing="125%"><tspan
         sodipodi:role="line"
         id="tspan4783"
         x="188.55931"
         y="275.42374" /></text>
<path
       style="fill:#cccccc;fill-rule:evenodd;stroke:#888888;stroke-width:31.24999809px;stroke-linecap:butt;stroke-linejoin:miter;stroke-opacity:1;fill-opacity:1"
       d="m 59.322033,476.69489 0,-442.796585 262.711857,0 67.79661,87.923725 0,354.87285 z"
       id="path4803"
       inkscape:connector-curvature="0"
       sodipodi:nodetypes="cccccc" /><g
       style="font-style:normal;font-variant:normal;font-weight:normal;font-stretch:normal;font-size:177.83366394px;line-height:125%;font-family:'Helvetica Neue LT Std';-inkscape-font-specification:'Helvetica Neue LT Std';letter-spacing:0px;word-spacing:0px;fill:#000000;fill-opacity:1;stroke:none;stroke-width:1px;stroke-linecap:butt;stroke-linejoin:miter;stroke-opacity:1"
       id="text5053"><path
         d="m 173.97947,156.02555 c -11.91486,-3.55667 -20.45088,-7.46901 -20.45088,-20.0952 0,-13.51536 9.06952,-20.27304 20.45088,-21.51788 l 0,41.61308 z m 9.78085,18.31687 c 12.98185,3.73451 22.94054,8.35818 22.94054,21.87354 0,15.2937 -9.60302,21.69571 -22.94054,22.76271 l 0,-44.63625 z m -49.97126,17.07203 c 1.95617,24.54105 16.8942,39.47907 40.19041,41.79091 l 0,14.58236 9.78085,0 0,-14.58236 c 22.58487,-1.77833 38.94557,-15.64936 38.94557,-38.5899 0,-21.87354 -19.20604,-30.76523 -28.27555,-33.07706 l -10.67002,-2.84534 0,-43.74708 c 10.67002,1.95617 17.60553,9.06951 19.91737,20.6287 l 15.11586,0 c -4.62368,-20.45087 -15.8272,-32.89923 -35.03323,-35.21106 l 0,-11.91486 -9.78085,0 0,11.73702 c -20.45088,1.24484 -36.45591,15.8272 -36.45591,37.34507 0,20.80654 11.38136,28.27555 36.45591,34.3219 l 0,47.12592 c -14.2267,-2.31184 -24.54105,-11.73702 -25.07455,-27.56422 l -15.11586,0 z"
         style="stroke:#888888;stroke-opacity:1;fill:#888888;fill-opacity:1"
         id="path5081" /></g><path
       style="fill:#888888;fill-rule:evenodd;stroke:#888888;stroke-width:31.24999809px;stroke-linecap:butt;stroke-linejoin:miter;stroke-opacity:1;fill-opacity:1"
       d="m 118.64406,305.08474 199.15255,0"
       id="path5057"
       inkscape:connector-curvature="0" /><path
       style="display:inline;fill:#888888;fill-rule:evenodd;stroke:#888888;stroke-width:31.24999619px;stroke-linecap:butt;stroke-linejoin:miter;stroke-opacity:1;fill-opacity:1"
       d="m 118.30629,359.49394 199.15254,0"
       id="path5057-0"
       inkscape:connector-curvature="0" /><path
       style="display:inline;fill:#888888;fill-rule:evenodd;stroke:#888888;stroke-width:31.24999619px;stroke-linecap:butt;stroke-linejoin:miter;stroke-opacity:1;fill-opacity:1"
       d="m 118.64406,411.01693 199.15254,0"
       id="path5057-3"
       inkscape:connector-curvature="0" /></g></svg>