<?xml version="1.0" encoding="UTF-8" standalone="no"?>
<svg
   xmlns:dc="http://purl.org/dc/elements/1.1/"
   xmlns:cc="http://creativecommons.org/ns#"
   xmlns:rdf="http://www.w3.org/1999/02/22-rdf-syntax-ns#"
   xmlns:svg="http://www.w3.org/2000/svg"
   xmlns="http://www.w3.org/2000/svg"
   xmlns:sodipodi="http://sodipodi.sourceforge.net/DTD/sodipodi-0.dtd"
   xmlns:inkscape="http://www.inkscape.org/namespaces/inkscape"
   version="1.1"
   id="Layer_1"
   x="0px"
   y="0px"
   width="16px"
   height="16px"
   viewBox="0 0 500 500"
   xml:space="preserve"
   inkscape:version="0.91 r13725"
   sodipodi:docname="refresh.svg"
   inkscape:export-filename="C:\Users\D\workspace\Fast Lane Admin\src\public\pic\icons\print.png"
   inkscape:export-xdpi="78.75"
   inkscape:export-ydpi="78.75"><metadata
     id="metadata9"><rdf:RDF><cc:Work
         rdf:about=""><dc:format>image/svg+xml</dc:format><dc:type
           rdf:resource="http://purl.org/dc/dcmitype/StillImage" /><dc:title></dc:title></cc:Work></rdf:RDF></metadata><defs
     id="defs7" /><sodipodi:namedview
     pagecolor="#ffffff"
     bordercolor="#666666"
     borderopacity="1"
     objecttolerance="10"
     gridtolerance="10"
     guidetolerance="10"
     inkscape:pageopacity="0"
     inkscape:pageshadow="2"
     inkscape:window-width="1280"
     inkscape:window-height="657"
     id="namedview5"
     showgrid="false"
     inkscape:zoom="14.75"
     inkscape:cx="8"
     inkscape:cy="5.2881356"
     inkscape:window-x="-8"
     inkscape:window-y="-8"
     inkscape:window-maximized="1"
     inkscape:current-layer="layer1" /><g
     inkscape:groupmode="layer"
     id="layer2"
     inkscape:label="Layer 2"
     style="display:inline"><circle
       style="fill:#cccccc;fill-opacity:1;stroke:#888888;stroke-width:28.12499866;stroke-opacity:1;stroke-miterlimit:4;stroke-dasharray:none"
       id="path4139"
       cx="252.11862"
       cy="256.35593"
       r="230.12024" /></g><g
     inkscape:groupmode="layer"
     id="layer1"
     inkscape:label="Layer 1"
     style="display:inline"><g
       id="g4174"
       transform="matrix(20.959443,0,0,20.959443,115.99576,99.046605)" /><g
       id="g4176"
       transform="matrix(20.959443,0,0,20.959443,115.99576,99.046605)" /><g
       id="g4178"
       transform="matrix(20.959443,0,0,20.959443,115.99576,99.046605)" /><g
       id="g4180"
       transform="matrix(20.959443,0,0,20.959443,115.99576,99.046605)" /><g
       id="g4182"
       transform="matrix(20.959443,0,0,20.959443,115.99576,99.046605)" /><g
       id="g4184"
       transform="matrix(20.959443,0,0,20.959443,115.99576,99.046605)" /><g
       id="g4186"
       transform="matrix(20.959443,0,0,20.959443,115.99576,99.046605)" /><g
       id="g4188"
       transform="matrix(20.959443,0,0,20.959443,115.99576,99.046605)" /><g
       id="g4190"
       transform="matrix(20.959443,0,0,20.959443,115.99576,99.046605)" /><g
       id="g4192"
       transform="matrix(20.959443,0,0,20.959443,115.99576,99.046605)" /><g
       id="g4194"
       transform="matrix(20.959443,0,0,20.959443,115.99576,99.046605)" /><g
       id="g4196"
       transform="matrix(20.959443,0,0,20.959443,115.99576,99.046605)" /><g
       id="g4198"
       transform="matrix(20.959443,0,0,20.959443,115.99576,99.046605)" /><g
       id="g4200"
       transform="matrix(20.959443,0,0,20.959443,115.99576,99.046605)" /><g
       id="g4202"
       transform="matrix(20.959443,0,0,20.959443,115.99576,99.046605)" /><g
       id="g4273"
       transform="matrix(24.137409,0,0,24.137409,82.09745,92.69067)" /><g
       id="g4275"
       transform="matrix(24.137409,0,0,24.137409,82.09745,92.69067)" /><g
       id="g4277"
       transform="matrix(24.137409,0,0,24.137409,82.09745,92.69067)" /><g
       id="g4279"
       transform="matrix(24.137409,0,0,24.137409,82.09745,92.69067)" /><g
       id="g4281"
       transform="matrix(24.137409,0,0,24.137409,82.09745,92.69067)" /><g
       id="g4283"
       transform="matrix(24.137409,0,0,24.137409,82.09745,92.69067)" /><g
       id="g4285"
       transform="matrix(24.137409,0,0,24.137409,82.09745,92.69067)" /><g
       id="g4287"
       transform="matrix(24.137409,0,0,24.137409,82.09745,92.69067)" /><g
       id="g4289"
       transform="matrix(24.137409,0,0,24.137409,82.09745,92.69067)" /><g
       id="g4291"
       transform="matrix(24.137409,0,0,24.137409,82.09745,92.69067)" /><g
       id="g4293"
       transform="matrix(24.137409,0,0,24.137409,82.09745,92.69067)" /><g
       id="g4295"
       transform="matrix(24.137409,0,0,24.137409,82.09745,92.69067)" /><g
       id="g4297"
       transform="matrix(24.137409,0,0,24.137409,82.09745,92.69067)" /><g
       id="g4299"
       transform="matrix(24.137409,0,0,24.137409,82.09745,92.69067)" /><g
       id="g4301"
       transform="matrix(24.137409,0,0,24.137409,82.09745,92.69067)" /><path
       inkscape:connector-curvature="0"
       d="m 381.90162,235.09013 0,-114.86611 -39.43735,39.43737 c -8.09807,-8.11721 -17.17249,-15.48779 -27.56787,-21.47996 -64.09528,-37.00604 -146.05224,-15.04746 -183.05827,49.04782 -37.006027,64.09528 -15.04746,146.05224 49.04783,183.05827 64.09528,37.00602 146.05224,15.02831 183.05826,-49.04783 l -33.15801,-19.14434 c -26.43834,45.79328 -84.96262,61.4725 -130.7559,35.03415 -45.79329,-26.43834 -61.47251,-84.96261 -35.03417,-130.7559 26.43835,-45.79329 84.96263,-61.47251 130.75591,-35.03416 7.44715,4.30748 13.74564,9.68705 19.52724,15.50692 l -48.24377,48.24377 114.8661,0 z"
       id="path4376"
       style="fill:#888888;fill-opacity:1" /><g
       transform="matrix(31.249999,0,0,31.249999,-30.205875,69.357751)"
       id="g4378" /><g
       transform="matrix(31.249999,0,0,31.249999,-30.205875,69.357751)"
       id="g4380" /><g
       transform="matrix(31.249999,0,0,31.249999,-30.205875,69.357751)"
       id="g4382" /><g
       transform="matrix(31.249999,0,0,31.249999,-30.205875,69.357751)"
       id="g4384" /><g
       transform="matrix(31.249999,0,0,31.249999,-30.205875,69.357751)"
       id="g4386" /><g
       transform="matrix(31.249999,0,0,31.249999,-30.205875,69.357751)"
       id="g4388" /><g
       transform="matrix(31.249999,0,0,31.249999,-30.205875,69.357751)"
       id="g4390" /><g
       transform="matrix(31.249999,0,0,31.249999,-30.205875,69.357751)"
       id="g4392" /><g
       transform="matrix(31.249999,0,0,31.249999,-30.205875,69.357751)"
       id="g4394" /><g
       transform="matrix(31.249999,0,0,31.249999,-30.205875,69.357751)"
       id="g4396" /><g
       transform="matrix(31.249999,0,0,31.249999,-30.205875,69.357751)"
       id="g4398" /><g
       transform="matrix(31.249999,0,0,31.249999,-30.205875,69.357751)"
       id="g4400" /><g
       transform="matrix(31.249999,0,0,31.249999,-30.205875,69.357751)"
       id="g4402" /><g
       transform="matrix(31.249999,0,0,31.249999,-30.205875,69.357751)"
       id="g4404" /><g
       transform="matrix(31.249999,0,0,31.249999,-30.205875,69.357751)"
       id="g4406" /></g></svg>