<?xml version="1.0" encoding="UTF-8" standalone="no"?>
<svg
   xmlns:dc="http://purl.org/dc/elements/1.1/"
   xmlns:cc="http://creativecommons.org/ns#"
   xmlns:rdf="http://www.w3.org/1999/02/22-rdf-syntax-ns#"
   xmlns:svg="http://www.w3.org/2000/svg"
   xmlns="http://www.w3.org/2000/svg"
   xmlns:sodipodi="http://sodipodi.sourceforge.net/DTD/sodipodi-0.dtd"
   xmlns:inkscape="http://www.inkscape.org/namespaces/inkscape"
   version="1.1"
   id="Layer_1"
   x="0px"
   y="0px"
   width="48"
   height="16"
   viewBox="0 0 1500 500"
   xml:space="preserve"
   inkscape:version="0.91 r13725"
   sodipodi:docname="x_invoice_save_remoteprint.svg"
   inkscape:export-filename="C:\Users\D\workspace\Fast Lane Admin\src\public\pic\icons\print.png"
   inkscape:export-xdpi="78.75"
   inkscape:export-ydpi="78.75"><metadata
     id="metadata9"><rdf:RDF><cc:Work
         rdf:about=""><dc:format>image/svg+xml</dc:format><dc:type
           rdf:resource="http://purl.org/dc/dcmitype/StillImage" /><dc:title></dc:title></cc:Work></rdf:RDF></metadata><defs
     id="defs7"><marker
       inkscape:stockid="Arrow2Send"
       orient="auto"
       refY="0.0"
       refX="0.0"
       id="Arrow2Send"
       style="overflow:visible;"
       inkscape:isstock="true"><path
         id="path6001"
         style="fill-rule:evenodd;stroke-width:0.625;stroke-linejoin:round;stroke:#888888;stroke-opacity:1;fill:#888888;fill-opacity:1"
         d="M 8.7185878,4.0337352 L -2.2072895,0.016013256 L 8.7185884,-4.0017078 C 6.9730900,-1.6296469 6.9831476,1.6157441 8.7185878,4.0337352 z "
         transform="scale(0.3) rotate(180) translate(-2.3,0)" /></marker><marker
       inkscape:stockid="TriangleOutL"
       orient="auto"
       refY="0"
       refX="0"
       id="TriangleOutL"
       style="overflow:visible"
       inkscape:isstock="true"><path
         id="path5810"
         d="m 5.77,0 -8.65,5 0,-10 8.65,5 z"
         style="fill:#888888;fill-opacity:1;fill-rule:evenodd;stroke:#888888;stroke-width:1pt;stroke-opacity:1"
         transform="scale(0.8,0.8)"
         inkscape:connector-curvature="0" /></marker><marker
       inkscape:stockid="Arrow2Lend"
       orient="auto"
       refY="0"
       refX="0"
       id="Arrow2Lend"
       style="overflow:visible"
       inkscape:isstock="true"><path
         id="path5689"
         style="fill:#888888;fill-opacity:1;fill-rule:evenodd;stroke:#888888;stroke-width:0.625;stroke-linejoin:round;stroke-opacity:1"
         d="M 8.7185878,4.0337352 -2.2072895,0.01601326 8.7185884,-4.0017078 c -1.7454984,2.3720609 -1.7354408,5.6174519 -6e-7,8.035443 z"
         transform="matrix(-1.1,0,0,-1.1,-1.1,0)"
         inkscape:connector-curvature="0" /></marker><marker
       inkscape:stockid="Arrow1Lstart"
       orient="auto"
       refY="0"
       refX="0"
       id="marker6295"
       style="overflow:visible"
       inkscape:isstock="true"><path
         id="path6297"
         d="M 0,0 5,-5 -12.5,0 5,5 0,0 Z"
         style="fill:#000000;fill-opacity:1;fill-rule:evenodd;stroke:#000000;stroke-width:1pt;stroke-opacity:1"
         transform="matrix(0.8,0,0,0.8,10,0)"
         inkscape:connector-curvature="0" /></marker><marker
       inkscape:stockid="Arrow1Lstart"
       orient="auto"
       refY="0"
       refX="0"
       id="marker6165"
       style="overflow:visible"
       inkscape:isstock="true"><path
         id="path6167"
         d="M 0,0 5,-5 -12.5,0 5,5 0,0 Z"
         style="fill:#000000;fill-opacity:1;fill-rule:evenodd;stroke:#000000;stroke-width:1pt;stroke-opacity:1"
         transform="matrix(0.8,0,0,0.8,10,0)"
         inkscape:connector-curvature="0" /></marker><marker
       inkscape:stockid="Arrow1Lstart"
       orient="auto"
       refY="0"
       refX="0"
       id="marker6041"
       style="overflow:visible"
       inkscape:isstock="true"><path
         id="path6043"
         d="M 0,0 5,-5 -12.5,0 5,5 0,0 Z"
         style="fill:#000000;fill-opacity:1;fill-rule:evenodd;stroke:#000000;stroke-width:1pt;stroke-opacity:1"
         transform="matrix(0.8,0,0,0.8,10,0)"
         inkscape:connector-curvature="0" /></marker><marker
       inkscape:stockid="Arrow1Lstart"
       orient="auto"
       refY="0"
       refX="0"
       id="marker5924"
       style="overflow:visible"
       inkscape:isstock="true"><path
         id="path5668"
         d="M 0,0 5,-5 -12.5,0 5,5 0,0 Z"
         style="fill:#000000;fill-opacity:1;fill-rule:evenodd;stroke:#000000;stroke-width:1pt;stroke-opacity:1"
         transform="matrix(0.8,0,0,0.8,10,0)"
         inkscape:connector-curvature="0" /></marker><marker
       inkscape:stockid="Arrow1Lstart"
       orient="auto"
       refY="0"
       refX="0"
       id="marker6910"
       style="overflow:visible"
       inkscape:isstock="true"><path
         id="path6912"
         d="M 0,0 5,-5 -12.5,0 5,5 0,0 Z"
         style="fill:#000000;fill-opacity:1;fill-rule:evenodd;stroke:#000000;stroke-width:1pt;stroke-opacity:1"
         transform="matrix(0.8,0,0,0.8,10,0)"
         inkscape:connector-curvature="0" /></marker><marker
       inkscape:stockid="Arrow1Lstart"
       orient="auto"
       refY="0"
       refX="0"
       id="marker6798"
       style="overflow:visible"
       inkscape:isstock="true"><path
         id="path6800"
         d="M 0,0 5,-5 -12.5,0 5,5 0,0 Z"
         style="fill:#000000;fill-opacity:1;fill-rule:evenodd;stroke:#000000;stroke-width:1pt;stroke-opacity:1"
         transform="matrix(0.8,0,0,0.8,10,0)"
         inkscape:connector-curvature="0" /></marker><marker
       inkscape:stockid="Arrow1Lstart"
       orient="auto"
       refY="0"
       refX="0"
       id="marker6506"
       style="overflow:visible"
       inkscape:isstock="true"><path
         id="path6508"
         d="M 0,0 5,-5 -12.5,0 5,5 0,0 Z"
         style="fill:#000000;fill-opacity:1;fill-rule:evenodd;stroke:#000000;stroke-width:1pt;stroke-opacity:1"
         transform="matrix(0.8,0,0,0.8,10,0)"
         inkscape:connector-curvature="0" /></marker><marker
       inkscape:stockid="Arrow1Lstart"
       orient="auto"
       refY="0"
       refX="0"
       id="marker6406"
       style="overflow:visible"
       inkscape:isstock="true"><path
         id="path6408"
         d="M 0,0 5,-5 -12.5,0 5,5 0,0 Z"
         style="fill:#000000;fill-opacity:1;fill-rule:evenodd;stroke:#000000;stroke-width:1pt;stroke-opacity:1"
         transform="matrix(0.8,0,0,0.8,10,0)"
         inkscape:connector-curvature="0" /></marker><marker
       inkscape:stockid="Arrow1Lstart"
       orient="auto"
       refY="0"
       refX="0"
       id="marker6312"
       style="overflow:visible"
       inkscape:isstock="true"><path
         id="path6314"
         d="M 0,0 5,-5 -12.5,0 5,5 0,0 Z"
         style="fill:#000000;fill-opacity:1;fill-rule:evenodd;stroke:#000000;stroke-width:1pt;stroke-opacity:1"
         transform="matrix(0.8,0,0,0.8,10,0)"
         inkscape:connector-curvature="0" /></marker><marker
       inkscape:stockid="Arrow1Lstart"
       orient="auto"
       refY="0"
       refX="0"
       id="marker6224"
       style="overflow:visible"
       inkscape:isstock="true"><path
         id="path6226"
         d="M 0,0 5,-5 -12.5,0 5,5 0,0 Z"
         style="fill:#000000;fill-opacity:1;fill-rule:evenodd;stroke:#000000;stroke-width:1pt;stroke-opacity:1"
         transform="matrix(0.8,0,0,0.8,10,0)"
         inkscape:connector-curvature="0" /></marker><marker
       inkscape:stockid="Arrow1Lstart"
       orient="auto"
       refY="0"
       refX="0"
       id="marker6142"
       style="overflow:visible"
       inkscape:isstock="true"><path
         id="path6144"
         d="M 0,0 5,-5 -12.5,0 5,5 0,0 Z"
         style="fill:#000000;fill-opacity:1;fill-rule:evenodd;stroke:#000000;stroke-width:1pt;stroke-opacity:1"
         transform="matrix(0.8,0,0,0.8,10,0)"
         inkscape:connector-curvature="0" /></marker><marker
       inkscape:stockid="Arrow1Lstart"
       orient="auto"
       refY="0"
       refX="0"
       id="marker5940"
       style="overflow:visible"
       inkscape:isstock="true"><path
         id="path5942"
         d="M 0,0 5,-5 -12.5,0 5,5 0,0 Z"
         style="fill:#000000;fill-opacity:1;fill-rule:evenodd;stroke:#000000;stroke-width:1pt;stroke-opacity:1"
         transform="matrix(0.8,0,0,0.8,10,0)"
         inkscape:connector-curvature="0" /></marker><marker
       inkscape:stockid="Arrow1Lstart"
       orient="auto"
       refY="0"
       refX="0"
       id="marker5756"
       style="overflow:visible"
       inkscape:isstock="true"><path
         id="path5758"
         d="M 0,0 5,-5 -12.5,0 5,5 0,0 Z"
         style="fill:#000000;fill-opacity:1;fill-rule:evenodd;stroke:#000000;stroke-width:1pt;stroke-opacity:1"
         transform="matrix(0.8,0,0,0.8,10,0)"
         inkscape:connector-curvature="0" /></marker><marker
       inkscape:stockid="Arrow1Lstart"
       orient="auto"
       refY="0"
       refX="0"
       id="marker5566"
       style="overflow:visible"
       inkscape:isstock="true"><path
         id="path5568"
         d="M 0,0 5,-5 -12.5,0 5,5 0,0 Z"
         style="fill:#000000;fill-opacity:1;fill-rule:evenodd;stroke:#000000;stroke-width:1pt;stroke-opacity:1"
         transform="matrix(0.8,0,0,0.8,10,0)"
         inkscape:connector-curvature="0" /></marker><marker
       inkscape:stockid="Arrow1Lstart"
       orient="auto"
       refY="0"
       refX="0"
       id="marker5430"
       style="overflow:visible"
       inkscape:isstock="true"><path
         id="path5432"
         d="M 0,0 5,-5 -12.5,0 5,5 0,0 Z"
         style="fill:#000000;fill-opacity:1;fill-rule:evenodd;stroke:#000000;stroke-width:1pt;stroke-opacity:1"
         transform="matrix(0.8,0,0,0.8,10,0)"
         inkscape:connector-curvature="0" /></marker><marker
       inkscape:stockid="Arrow1Lstart"
       orient="auto"
       refY="0"
       refX="0"
       id="marker5300"
       style="overflow:visible"
       inkscape:isstock="true"><path
         id="path5302"
         d="M 0,0 5,-5 -12.5,0 5,5 0,0 Z"
         style="fill:#000000;fill-opacity:1;fill-rule:evenodd;stroke:#000000;stroke-width:1pt;stroke-opacity:1"
         transform="matrix(0.8,0,0,0.8,10,0)"
         inkscape:connector-curvature="0" /></marker><marker
       inkscape:stockid="StopS"
       orient="auto"
       refY="0"
       refX="0"
       id="StopS"
       style="overflow:visible"
       inkscape:isstock="true"><path
         id="path4921"
         d="M 0,5.65 0,-5.65"
         style="fill:none;fill-opacity:0.75;fill-rule:evenodd;stroke:#000000;stroke-width:1pt;stroke-opacity:1"
         transform="scale(0.2,0.2)"
         inkscape:connector-curvature="0" /></marker><marker
       inkscape:stockid="TriangleOutM"
       orient="auto"
       refY="0"
       refX="0"
       id="TriangleOutM"
       style="overflow:visible"
       inkscape:isstock="true"><path
         id="path4891"
         d="m 5.77,0 -8.65,5 0,-10 8.65,5 z"
         style="fill:#888888;fill-opacity:1;fill-rule:evenodd;stroke:#888888;stroke-width:1pt;stroke-opacity:1"
         transform="scale(0.4,0.4)"
         inkscape:connector-curvature="0" /></marker><marker
       inkscape:stockid="Arrow1Send"
       orient="auto"
       refY="0"
       refX="0"
       id="Arrow1Send"
       style="overflow:visible"
       inkscape:isstock="true"><path
         id="path4761"
         d="M 0,0 5,-5 -12.5,0 5,5 0,0 Z"
         style="fill:#000000;fill-opacity:1;fill-rule:evenodd;stroke:#000000;stroke-width:1pt;stroke-opacity:1"
         transform="matrix(-0.2,0,0,-0.2,-1.2,0)"
         inkscape:connector-curvature="0" /></marker><marker
       inkscape:stockid="Arrow1Sstart"
       orient="auto"
       refY="0"
       refX="0"
       id="Arrow1Sstart"
       style="overflow:visible"
       inkscape:isstock="true"><path
         id="path4758"
         d="M 0,0 5,-5 -12.5,0 5,5 0,0 Z"
         style="fill:#000000;fill-opacity:1;fill-rule:evenodd;stroke:#000000;stroke-width:1pt;stroke-opacity:1"
         transform="matrix(0.2,0,0,0.2,1.2,0)"
         inkscape:connector-curvature="0" /></marker><marker
       inkscape:stockid="Arrow1Lstart"
       orient="auto"
       refY="0"
       refX="0"
       id="marker5036"
       style="overflow:visible"
       inkscape:isstock="true"><path
         id="path5038"
         d="M 0,0 5,-5 -12.5,0 5,5 0,0 Z"
         style="fill:#000000;fill-opacity:1;fill-rule:evenodd;stroke:#000000;stroke-width:1pt;stroke-opacity:1"
         transform="matrix(0.8,0,0,0.8,10,0)"
         inkscape:connector-curvature="0" /></marker><marker
       inkscape:stockid="Arrow1Lstart"
       orient="auto"
       refY="0"
       refX="0"
       id="Arrow1Lstart"
       style="overflow:visible"
       inkscape:isstock="true"><path
         id="path4746"
         d="M 0,0 5,-5 -12.5,0 5,5 0,0 Z"
         style="fill:#000000;fill-opacity:1;fill-rule:evenodd;stroke:#000000;stroke-width:1pt;stroke-opacity:1"
         transform="matrix(0.8,0,0,0.8,10,0)"
         inkscape:connector-curvature="0" /></marker></defs><sodipodi:namedview
     pagecolor="#ffffff"
     bordercolor="#666666"
     borderopacity="1"
     objecttolerance="10"
     gridtolerance="10"
     guidetolerance="10"
     inkscape:pageopacity="0"
     inkscape:pageshadow="2"
     inkscape:window-width="1280"
     inkscape:window-height="657"
     id="namedview5"
     showgrid="false"
     inkscape:zoom="11.187066"
     inkscape:cx="21.678791"
     inkscape:cy="12.165865"
     inkscape:window-x="-8"
     inkscape:window-y="-8"
     inkscape:window-maximized="1"
     inkscape:current-layer="layer6" /><g
     inkscape:groupmode="layer"
     id="layer3"
     inkscape:label="invoice"
     style="display:inline"><g
       id="g6485"
       transform="translate(0,11.173618)"><path
         sodipodi:nodetypes="cccccc"
         inkscape:connector-curvature="0"
         id="path4803"
         d="m 64.908842,409.93947 0,-373.247761 220.524288,0 56.90949,74.113791 0,299.13397 z"
         style="display:inline;fill:#cccccc;fill-opacity:1;fill-rule:evenodd;stroke:#888888;stroke-width:31.24999619px;stroke-linecap:butt;stroke-linejoin:miter;stroke-opacity:1" /><path
         inkscape:connector-curvature="0"
         id="path5057"
         d="m 114.70465,265.28365 167.17164,0"
         style="display:inline;fill:#888888;fill-opacity:1;fill-rule:evenodd;stroke:#888888;stroke-width:31.24999619px;stroke-linecap:butt;stroke-linejoin:miter;stroke-opacity:1" /><path
         inkscape:connector-curvature="0"
         id="path5057-0"
         d="m 114.70465,309.93052 167.17164,0"
         style="display:inline;fill:#888888;fill-opacity:1;fill-rule:evenodd;stroke:#888888;stroke-width:31.24999619px;stroke-linecap:butt;stroke-linejoin:miter;stroke-opacity:1" /><path
         inkscape:connector-curvature="0"
         id="path5057-3"
         d="m 114.70465,354.57737 167.17163,0"
         style="display:inline;fill:#888888;fill-opacity:1;fill-rule:evenodd;stroke:#888888;stroke-width:31.24999619px;stroke-linecap:butt;stroke-linejoin:miter;stroke-opacity:1" /><path
         inkscape:connector-curvature="0"
         id="path5081"
         style="font-style:normal;font-variant:normal;font-weight:normal;font-stretch:normal;font-size:177.83366394px;line-height:125%;font-family:'Helvetica Neue LT Std';-inkscape-font-specification:'Helvetica Neue LT Std';letter-spacing:0px;word-spacing:0px;display:inline;fill:#888888;fill-opacity:1;stroke:#888888;stroke-width:1px;stroke-linecap:butt;stroke-linejoin:miter;stroke-opacity:1"
         d="m 148.98234,139.18715 c -10.00151,-2.99803 -17.16677,-6.29586 -17.16677,-16.93889 0,-11.39254 7.61309,-17.08881 17.16677,-18.13813 l 0,35.07702 z m 8.2102,15.4399 c 10.89716,3.14794 19.25663,7.04538 19.25663,18.43792 0,12.89156 -8.06092,18.28803 -19.25663,19.18744 l 0,-37.62536 z m -41.94663,14.39058 c 1.64204,20.68645 14.18124,33.27819 33.73643,35.22692 l 0,12.29195 8.2102,0 0,-12.29195 c 18.95808,-1.49902 32.69149,-13.19136 32.69149,-32.52869 0,-18.43793 -16.12184,-25.93303 -23.73492,-27.88174 l -8.95657,-2.39843 0,-36.87585 c 8.95657,1.64892 14.77834,7.64499 16.71894,17.38861 l 12.68848,0 C 182.71877,104.70974 173.31437,94.216612 157.19254,92.267892 l 0,-10.043425 -8.2102,0 0,9.893515 c -17.16677,1.04932 -30.60164,13.341278 -30.60164,31.479388 0,17.53852 9.55369,23.83438 30.60164,28.93105 l 0,39.72399 c -11.9421,-1.94873 -20.60012,-9.89352 -21.04795,-23.23478 l -12.68848,0 z" /></g></g><g
     inkscape:groupmode="layer"
     id="layer4"
     inkscape:label="arrow"><path
       style="display:inline;font-style:normal;font-variant:normal;font-weight:normal;font-stretch:normal;font-size:177.83366394px;line-height:125%;font-family:'Helvetica Neue LT Std';-inkscape-font-specification:'Helvetica Neue LT Std';letter-spacing:0px;word-spacing:0px;fill:none;fill-opacity:1;stroke:#888888;stroke-width:31.24999852;stroke-linecap:butt;stroke-linejoin:miter;stroke-opacity:1;fill-rule:evenodd;marker-end:url(#Arrow2Send);stroke-miterlimit:3.4;stroke-dasharray:none"
       d="m 47.487877,446.9253 1399.495623,0"
       id="path5902"
       inkscape:connector-curvature="0" /></g><g
     inkscape:groupmode="layer"
     id="layer5"
     inkscape:label="save"><g
       id="g6479"
       transform="translate(5.5868089,16.760426)"><rect
         style="font-style:normal;font-variant:normal;font-weight:normal;font-stretch:normal;font-size:177.83366394px;line-height:125%;font-family:'Helvetica Neue LT Std';-inkscape-font-specification:'Helvetica Neue LT Std';letter-spacing:0px;word-spacing:0px;display:inline;opacity:1;fill:#cccccc;fill-opacity:1;stroke:#888888;stroke-width:34.7342453;stroke-linecap:round;stroke-linejoin:miter;stroke-miterlimit:4;stroke-dasharray:none;stroke-opacity:1"
         id="rect4836"
         width="344.84308"
         height="302.0553"
         x="437.4054"
         y="98.753242" /><rect
         transform="scale(0.99999995,-0.99999995)"
         y="-256.16919"
         x="492.47583"
         height="129.22876"
         width="232.79527"
         id="rect5087"
         style="font-style:normal;font-variant:normal;font-weight:normal;font-stretch:normal;font-size:177.83366394px;line-height:125%;font-family:'Helvetica Neue LT Std';-inkscape-font-specification:'Helvetica Neue LT Std';letter-spacing:0px;word-spacing:0px;display:inline;opacity:1;fill:#888888;fill-opacity:1;stroke:none;stroke-width:44.8125;stroke-linecap:round;stroke-linejoin:miter;stroke-miterlimit:4;stroke-dasharray:358.49998853, 89.62499713, 44.81249857, 89.62499713;stroke-dashoffset:0;stroke-opacity:1" /><rect
         y="301.89627"
         x="514.36255"
         height="89.466064"
         width="121.37189"
         id="rect5089"
         style="font-style:normal;font-variant:normal;font-weight:normal;font-stretch:normal;font-size:177.83366394px;line-height:125%;font-family:'Helvetica Neue LT Std';-inkscape-font-specification:'Helvetica Neue LT Std';letter-spacing:0px;word-spacing:0px;display:inline;opacity:1;fill:#888888;fill-opacity:1;stroke:none;stroke-width:1.43400002;stroke-linecap:round;stroke-linejoin:miter;stroke-miterlimit:4;stroke-dasharray:11.472, 2.868, 1.434, 2.868;stroke-dashoffset:0;stroke-opacity:1" /><rect
         y="302.89032"
         x="654.6366"
         height="89.466064"
         width="49.74258"
         id="rect5089-7"
         style="font-style:normal;font-variant:normal;font-weight:normal;font-stretch:normal;font-size:177.83366394px;line-height:125%;font-family:'Helvetica Neue LT Std';-inkscape-font-specification:'Helvetica Neue LT Std';letter-spacing:0px;word-spacing:0px;display:inline;opacity:1;fill:#888888;fill-opacity:1;stroke:none;stroke-width:1.43400002;stroke-linecap:round;stroke-linejoin:miter;stroke-miterlimit:4;stroke-dasharray:11.472, 2.868, 1.434, 2.868;stroke-dashoffset:0;stroke-opacity:1" /></g></g><g
     inkscape:groupmode="layer"
     id="layer6"
     inkscape:label="email"><rect
       style="display:inline;opacity:1;fill:#cccccc;fill-opacity:1;stroke:#888888;stroke-width:31.24999428;stroke-linecap:round;stroke-linejoin:miter;stroke-miterlimit:4;stroke-dasharray:none;stroke-opacity:1"
       id="rect4191"
       width="327.12228"
       height="216.68033"
       x="884.59985"
       y="201.8497" /><path
       style="display:inline;fill:none;fill-rule:evenodd;stroke:#888888;stroke-width:31.24999428px;stroke-linecap:butt;stroke-linejoin:miter;stroke-opacity:1"
       d="m 1128.3379,282.70058 0,-164.93578 134.6973,0 0,-12.93613"
       id="path4193"
       inkscape:connector-curvature="0" /></g></svg>